^C:\USERS\MINHCHI\DOCUMENTS\VISUAL STUDIO 2015\PROJECTS\CTDL\DOAN1\DOAN1\INT128.CPP
/c /ZI /nologo /W3 /WX- /sdl /Od /D _DEBUG /D _CONSOLE /D _UNICODE /D UNICODE /Gm /EHsc /RTC1 /MDd /GS /fp:precise /Zc:wchar_t /Zc:forScope /Zc:inline /Fo"X64\DEBUG\\" /Fd"X64\DEBUG\VC140.PDB" /Gd /TP C:\USERS\MINHCHI\DOCUMENTS\VISUAL STUDIO 2015\PROJECTS\CTDL\DOAN1\DOAN1\INT128.CPP
^C:\USERS\MINHCHI\DOCUMENTS\VISUAL STUDIO 2015\PROJECTS\CTDL\DOAN1\DOAN1\MAIN.CPP
/c /ZI /nologo /W3 /WX- /sdl /Od /D _DEBUG /D _CONSOLE /D _UNICODE /D UNICODE /Gm /EHsc /RTC1 /MDd /GS /fp:precise /Zc:wchar_t /Zc:forScope /Zc:inline /Fo"X64\DEBUG\\" /Fd"X64\DEBUG\VC140.PDB" /Gd /TP C:\USERS\MINHCHI\DOCUMENTS\VISUAL STUDIO 2015\PROJECTS\CTDL\DOAN1\DOAN1\MAIN.CPP
^C:\USERS\MINHCHI\DOCUMENTS\VISUAL STUDIO 2015\PROJECTS\KTMT-HN\DOAN1\DOAN1\INT128.CPP
/c /ZI /nologo /W3 /WX- /sdl /Od /D _DEBUG /D _CONSOLE /D _UNICODE /D UNICODE /Gm /EHsc /RTC1 /MDd /GS /fp:precise /Zc:wchar_t /Zc:forScope /Zc:inline /Fo"X64\DEBUG\\" /Fd"X64\DEBUG\VC140.PDB" /Gd /TP C:\USERS\MINHCHI\DOCUMENTS\VISUAL STUDIO 2015\PROJECTS\KTMT-HN\DOAN1\DOAN1\INT128.CPP
^C:\USERS\MINHCHI\DOCUMENTS\VISUAL STUDIO 2015\PROJECTS\KTMT-HN\DOAN1\DOAN1\MAIN.CPP
/c /ZI /nologo /W3 /WX- /sdl /Od /D _DEBUG /D _CONSOLE /D _UNICODE /D UNICODE /Gm /EHsc /RTC1 /MDd /GS /fp:precise /Zc:wchar_t /Zc:forScope /Zc:inline /Fo"X64\DEBUG\\" /Fd"X64\DEBUG\VC140.PDB" /Gd /TP C:\USERS\MINHCHI\DOCUMENTS\VISUAL STUDIO 2015\PROJECTS\KTMT-HN\DOAN1\DOAN1\MAIN.CPP
^C:\USERS\MINHCHI\DOCUMENTS\VISUAL STUDIO 2015\PROJECTS\KTMT-HN\DOAN1\DOAN1\QINT.CPP
/c /ZI /nologo /W3 /WX- /sdl /Od /D _DEBUG /D _CONSOLE /D _UNICODE /D UNICODE /Gm /EHsc /RTC1 /MDd /GS /fp:precise /Zc:wchar_t /Zc:forScope /Zc:inline /Fo"X64\DEBUG\\" /Fd"X64\DEBUG\VC140.PDB" /Gd /TP C:\USERS\MINHCHI\DOCUMENTS\VISUAL STUDIO 2015\PROJECTS\KTMT-HN\DOAN1\DOAN1\QINT.CPP
